
<svg width="59px" height="46px" viewBox="170 134 59 46" version="1.1" xmlns="http://www.w3.org/2000/svg" xmlns:xlink="http://www.w3.org/1999/xlink">
    <!-- Generator: Sketch 41.2 (35397) - http://www.bohemiancoding.com/sketch -->
    <desc>Created with Sketch.</desc>
    <defs></defs>
    <g id="Camera" stroke="none" stroke-width="1" fill="none" fill-rule="evenodd" transform="translate(170.407705, 134.000000)">
        <g id="add-photo-cam" transform="translate(0.138042, 0.000000)" fill="#24C4FF">
            <path d="M6.16268085,10.4135749 C3.74135805,10.4135749 1.82972251,12.3250773 1.82972251,14.7464645 L1.82972251,39.7240327 C1.82972251,42.0192331 3.86877986,44.0569223 6.16268085,44.0569223 L50.5114333,44.0569223 C52.931523,44.0569223 54.8430558,42.1454198 54.8430558,39.7240327 L54.8430558,14.7464645 C54.8430558,12.3250773 52.931523,10.4135749 50.5114333,10.4135749 L43.884574,10.4135749 C42.4814954,10.4135749 41.0809857,9.39411373 40.5699626,7.99229046 L38.9131707,2.89477933 C38.7857489,2.51251994 38.148537,2.13015779 37.7675047,2.13015779 L18.9066095,2.13015779 C18.5242413,2.13015779 18.014554,2.51251994 17.7596076,2.89477933 L16.1029185,7.99229046 C15.5931284,9.39411373 14.0638611,10.4135749 12.7895402,10.4135749 L6.16268085,10.4135749 Z M49.623245,45.5403059 L7.05084189,45.5403059 C3.5031252,45.5403059 0.567097399,42.6043247 0.567097399,39.0554806 L0.567097399,15.0795501 C0.567097399,11.5318897 3.5031252,8.59590849 7.05084189,8.59590849 L13.4122683,8.59590849 C13.7792225,8.59590849 14.2685933,8.22886151 14.5132294,7.73959707 L16.1035614,2.84626216 C16.5929322,1.50058766 17.9386281,0.521960136 19.2843239,0.521960136 L37.3897629,0.521960136 C38.7354588,0.521960136 40.0799709,1.50058766 40.5705255,2.72394605 L42.1608574,7.61718232 C42.2843592,7.98422929 42.8960481,8.47359238 43.2618185,8.47359238 L49.623245,8.47359238 C53.2932797,8.47359238 56.1069894,11.2871588 56.1069894,14.9571354 L56.1069894,38.9343482 C56.1069894,42.6043247 53.1709616,45.5403059 49.623245,45.5403059 L49.623245,45.5403059 Z" id="Fill-1"></path>
        </g>
        <path d="M28.4750852,12.8230158 C21.2797706,12.8230158 15.3926279,18.7100651 15.3926279,25.9052655 C15.3926279,33.100466 21.2797706,38.8566052 28.4750852,38.8566052 C35.6703997,38.8566052 41.5575424,32.9696614 41.5575424,25.9052655 C41.5575424,18.579155 35.6703997,12.8230158 28.4750852,12.8230158 M28.4750852,40.5074188 C20.3609389,40.5074188 13.7447858,33.8913707 13.7447858,25.7774538 C13.7447858,17.6634363 20.3609389,11.0473882 28.4750852,11.0473882 C36.5892314,11.0473882 43.2053845,17.6634363 43.2053845,25.7774538 C43.2053845,33.8913707 36.5892314,40.5074188 28.4750852,40.5074188" id="Fill-4" fill="#24C4FF"></path>
        <path d="M28.4750852,18.0304948 C24.1865675,18.0304948 20.7280892,21.4889183 20.7280892,25.7773679 C20.7280892,29.9274984 24.3248888,33.5243525 28.4750852,33.5243525 C32.7636028,33.5243525 36.2220811,30.0658175 36.2220811,25.7773679 C36.2220811,21.4889183 32.7636028,18.0304948 28.4750852,18.0304948 M28.4750852,35.1397322 C23.3569252,35.1397322 19.2374944,31.0202661 19.2374944,25.9021873 C19.2374944,20.7842092 23.3569252,16.6647431 28.4750852,16.6647431 C33.7180611,16.6647431 37.7126759,20.7842092 37.7126759,25.9021873 C37.7126759,30.8954521 33.5932451,35.1397322 28.4750852,35.1397322" id="Fill-6" fill="#24C4FF"></path>
        <path d="M50.1959855,16.7895974 C50.1959855,15.6661707 49.322173,14.9170853 48.3235445,14.9170853 C47.1999993,14.9170853 46.3261867,15.6661707 46.3261867,16.7895974 C46.3261867,17.9130241 47.1999993,18.7869234 48.3247524,18.7869234 C49.322173,18.7869234 50.1959855,17.9130241 50.1959855,16.7895974" id="Fill-8" fill="#24C4FF"></path>
    </g>
</svg>