<?xml version="1.0" encoding="UTF-8"?>
<svg width="66px" height="205px" viewBox="0 0 66 205" version="1.1" xmlns="http://www.w3.org/2000/svg" xmlns:xlink="http://www.w3.org/1999/xlink">
    <!-- Generator: Sketch 41.2 (35397) - http://www.bohemiancoding.com/sketch -->
    <title>Combined Shape</title>
    <desc>Created with Sketch.</desc>
    <defs></defs>
    <g id="New-design-V1" stroke="none" stroke-width="1" fill="none" fill-rule="evenodd">
        <g id="Seez-car-Guide" transform="translate(-630.000000, -46.000000)" stroke="#101217" stroke-width="3" fill="#24C4FF">
            <g id="Group-2" transform="translate(-167.000000, -312.000000)">
                <g id="Group" transform="translate(800.000000, 361.000000)">
                    <path d="M21.1112252,46.5120971 L21.1112252,153.593221 C12.2946059,157.169918 6.07682258,165.817803 6.07682258,175.917929 C6.07682258,189.21809 16.8587328,200 30.1588931,200 C43.4590535,200 54.2409637,189.21809 54.2409637,175.917929 C54.2409637,165.817803 48.0231804,157.169918 39.2065611,153.593221 L39.2065611,46.5120971 L60.3177863,46.5120971 L30.1588931,0 L0,46.5120971 L21.1112252,46.5120971 Z" id="Combined-Shape" transform="translate(30.158893, 100.000000) scale(1, -1) rotate(180.000000) translate(-30.158893, -100.000000) "></path>
                </g>
            </g>
        </g>
    </g>
</svg>