<?xml version="1.0" encoding="UTF-8"?>
<svg width="49px" height="49px" viewBox="0 0 49 49" version="1.1" xmlns="http://www.w3.org/2000/svg" xmlns:xlink="http://www.w3.org/1999/xlink">
    <!-- Generator: Sketch 41.2 (35397) - http://www.bohemiancoding.com/sketch -->
    <title>info_icon</title>
    <desc>Created with Sketch.</desc>
    <defs></defs>
    <g id="April-Update" stroke="none" stroke-width="1" fill="none" fill-rule="evenodd">
        <g id="Key_results" transform="translate(-893.000000, -554.000000)" stroke-width="2" stroke="#23C0FA">
            <g id="Side_drawer" transform="translate(-54.000000, 0.000000)">
                <g id="Group" transform="translate(943.000000, 122.000000)">
                    <g id="Oval-148-+-Help-+-info_icon" transform="translate(5.949426, 433.000000)">
                        <g id="info_icon">
                            <ellipse id="Oval" cx="23.011028" cy="23.5040186" rx="22.990022" ry="23.462019"></ellipse>
                            <text id="i" fill-opacity="0" fill="#D8D8D8" font-family="Georgia-Bold, Georgia" font-size="28.0178872" font-weight="bold">
                                <tspan x="18.2697749" y="33.0168839">i</tspan>
                            </text>
                        </g>
                    </g>
                </g>
            </g>
        </g>
    </g>
</svg>