<?xml version="1.0" encoding="UTF-8"?>
<svg width="15px" height="26px" viewBox="0 0 15 26" version="1.1" xmlns="http://www.w3.org/2000/svg" xmlns:xlink="http://www.w3.org/1999/xlink">
    <!-- Generator: Sketch 41.2 (35397) - http://www.bohemiancoding.com/sketch -->
    <title>Line 13 + Line 14 + Line 17</title>
    <desc>Created with Sketch.</desc>
    <defs></defs>
    <g id="Page-1" stroke="none" stroke-width="1" fill="none" fill-rule="evenodd" stroke-linecap="round" opacity="0.5" stroke-linejoin="round">
        <g id="Browse-Cars" transform="translate(-613.000000, -1263.000000)" stroke="#FFFFFF">
            <g id="Price" transform="translate(-300.000000, 1117.000000)">
                <g id="Filter" transform="translate(333.000000, 49.000000)">
                    <g id="Market-price-screen">
                        <g id="Specs" transform="translate(0.000000, 65.000000)">
                            <g id="MILEAGE-+-300km/h-+-Control">
                                <g id="Line-13-+-Line-14-+-Line-18-+-Line-13-+-Line-14-+-Line-17" transform="translate(374.000000, 33.000000)">
                                    <g id="Line-13-+-Line-14-+-Line-17" transform="translate(213.434989, 12.335724) scale(-1, 1) translate(-213.434989, -12.335724) translate(206.934989, 0.085724)">
                                        <path d="M8.44405594,3.19062968 L8.44405594,20.7395893" id="Line-13"></path>
                                        <path d="M4.42307692,6.78008807 L4.42307692,17.7876376" id="Line-14"></path>
                                        <path d="M0.402097902,10.3695465 L0.402097902,13.8739796" id="Line-15"></path>
                                        <path d="M12.465035,0.199414355 L12.465035,24.129137" id="Line"></path>
                                    </g>
                                </g>
                            </g>
                        </g>
                    </g>
                </g>
            </g>
        </g>
    </g>
</svg>