<?xml version="1.0" encoding="UTF-8"?>
<svg width="26px" height="27px" viewBox="0 0 26 27" version="1.1" xmlns="http://www.w3.org/2000/svg" xmlns:xlink="http://www.w3.org/1999/xlink">
    <!-- Generator: Sketch 41.2 (35397) - http://www.bohemiancoding.com/sketch -->
    <title>Page 1</title>
    <desc>Created with Sketch.</desc>
    <defs></defs>
    <g id="Page-1" stroke="none" stroke-width="1" fill="none" fill-rule="evenodd">
        <g id="Browse-Cars-Copy-2" transform="translate(-590.000000, -61.000000)" stroke="#A8A9AE" stroke-width="0.600000024" fill="#A8A9AE">
            <g id="Filters" transform="translate(34.410000, 43.990000)">
                <g id="Price" transform="translate(213.659000, 10.151000)">
                    <g id="Group-17" transform="translate(340.000000, 0.000000)">
                        <g id="Page-1" transform="translate(2.101353, 7.988087)">
                            <path d="M24.8825133,0.169988064 C24.7207193,0.00852492105 24.4609886,0.00852492105 24.2995255,0.169988064 L22.7652947,1.70421878 L13.132761,1.70421878 L1.02765744,13.9089133 C0.753699487,14.1868417 0.601169756,14.5498029 0.601169756,14.942873 C0.601169756,15.3356122 0.753699487,15.7002278 1.02765744,15.9768327 L9.49322294,24.4384278 C9.76982783,24.7150327 10.1344434,24.8649154 10.5271826,24.8649154 C10.9162823,24.8649154 11.2845374,24.7123857 11.5611423,24.4344574 L23.3482826,12.3293538 L23.3482826,2.28720661 L24.8825133,0.752975885 C25.0439764,0.595152281 25.0439764,0.331782073 24.8825133,0.169988064 Z M22.5211148,11.9895533 L10.9745149,23.8518004 C10.7339745,24.0920099 10.3203907,24.0920099 10.0811738,23.8518004 L1.61461567,15.3898744 C1.49418005,15.2697697 1.42833749,15.1083065 1.42833749,14.942873 C1.42833749,14.7774394 1.49418005,14.6156454 1.61461567,14.4955407 L13.4805023,2.53138652 L21.938127,2.53138652 L19.9400206,4.52949291 C19.6091535,4.31376756 19.2200538,4.185722 18.79886,4.185722 C17.6576994,4.185722 16.7309406,5.11248073 16.7309406,6.25364134 C16.7309406,7.39480195 17.6576994,8.32156069 18.79886,8.32156069 C19.9400206,8.32156069 20.8667793,7.39480195 20.8667793,6.25364134 C20.8667793,5.83244753 20.7387338,5.44334783 20.5230084,5.11612027 L22.5211148,3.11437434 L22.5211148,11.9895533 Z M20.0396116,6.25364134 C20.0396116,6.93588929 19.4814388,7.49439295 18.79886,7.49439295 C18.1162812,7.49439295 17.5581084,6.93588929 17.5581084,6.25364134 C17.5581084,5.57139339 18.1162812,5.01288974 18.79886,5.01288974 C18.9887777,5.01288974 19.1671151,5.05821853 19.3325486,5.1369649 L18.5093513,5.96016223 C18.3478881,6.12195624 18.3478881,6.38168691 18.5093513,6.54315005 C18.5880977,6.62586683 18.6916591,6.66722521 18.79886,6.66722521 C18.9060609,6.66722521 19.0096223,6.62586683 19.0923391,6.54712046 L19.9155364,5.72359226 C19.9942828,5.88538627 20.0396116,6.06372363 20.0396116,6.25364134 Z" id="Fill-1"></path>
                            <path d="M17.1071365,8.78940676 C17.2685997,8.62794362 17.2685997,8.36821295 17.1071365,8.20641894 C16.9453425,8.0449558 16.6856119,8.0449558 16.5241487,8.20641894 L16.2137954,8.51677227 C15.4733148,7.92485104 14.5349757,7.63534233 13.5800933,7.7140887 C12.9143887,7.7683509 12.3108871,8.09028459 11.880429,8.62000281 C11.4383906,9.16560265 11.2355691,9.87762864 11.3219254,10.5717878 L11.6362491,13.090679 L7.93450805,16.7924201 C7.08682656,15.6588694 7.17318287,14.0419219 8.203503,13.0119326 C8.36496615,12.8504695 8.36496615,12.590408 8.203503,12.4289448 C8.04170899,12.2674817 7.78197832,12.2674817 7.62051518,12.4289448 C6.26859223,13.7808678 6.17694204,15.9238939 7.34391029,17.3843413 L6.87209381,17.8558269 C6.71063067,18.0176209 6.71063067,18.2773516 6.87209381,18.4388147 C6.95481059,18.5215315 7.05837199,18.5589195 7.16557293,18.5589195 C7.27277386,18.5589195 7.37633526,18.5175611 7.45905204,18.4388147 L7.93053765,17.9669982 C8.5886323,18.4917535 9.40653576,18.7812622 10.2505777,18.7812622 C10.3541391,18.7812622 10.4573697,18.7776226 10.5645706,18.7683584 C11.2302752,18.7140961 11.8337768,18.3924933 12.2642349,17.8624442 C12.7062733,17.3171753 12.9090948,16.6048184 12.8224077,15.9109901 L12.5084148,13.3917681 L16.2101558,9.69035786 C17.0578373,10.8235777 16.971481,12.4405252 15.9411609,13.4705144 C15.7796977,13.6323084 15.7796977,13.8920391 15.9411609,14.0535022 C16.1029549,14.2149654 16.3626856,14.2149654 16.5241487,14.0535022 C17.8760717,12.7015793 17.9677218,10.558884 16.8007536,9.09843663 L17.1071365,8.78940676 Z M11.9992103,16.0102502 C12.0574429,16.4860371 11.920464,16.969434 11.6193749,17.3416594 C11.3335057,17.6930403 10.9331565,17.907773 10.4947576,17.945161 C9.78405512,18.0033936 9.08493294,17.7966017 8.52245888,17.3737535 L11.7679342,14.1322486 L11.9992103,16.0102502 Z M12.1441301,10.4721968 C12.0858975,9.99640992 12.2228765,9.51334396 12.5239655,9.14111848 C12.8095038,8.78940676 13.2101839,8.57500488 13.6485828,8.53728603 C14.3592853,8.47938429 15.0584075,8.68617623 15.6208815,9.10869351 L12.3740827,12.3551614 L12.1441301,10.4721968 Z" id="Fill-2"></path>
                        </g>
                    </g>
                </g>
            </g>
        </g>
    </g>
</svg>